{
  "data": [
    {
      "attributes": {
        "name": "test-name-1",
        "systems": 0
      },
      "id": 1,
      "type": "baseline"
    },
    {
      "attributes": {
        "name": "test-name-2",
        "systems": 0
      },
      "id": 2,
      "type": "baseline"
    },
    {
      "attributes": {
        "name": "test-name-3",
        "systems": 0
      },
      "id": 3,
      "type": "baseline"
    },
    {
      "attributes": {
        "name": "test-name-4",
        "systems": 0
      },
      "id": 4,
      "type": "baseline"
    },
    {
      "attributes": {
        "name": "test-name-5",
        "systems": 0
      },
      "id": 5,
      "type": "baseline"
    }
  ],
  "links": {
    "first": "/api/patch/v2/baselines/?offset=0&limit=20&sort=-name",
    "last": "/api/patch/v2/baselines/?offset=1380&limit=20&sort=-name",
    "next": "/api/patch/v2/baselines/?offset=20&limit=20&sort=-name",
    "previous": null
  },
  "meta": {
    "limit": 20,
    "offset": 0,
    "sort": ["-name"],
    "filter": {},
    "total_items": 1407,
    "has_systems": true
  }
}
